0.0 MSE  0.0190   MEDIAN  1.8834   MEAN  2.8704   MAX  18.1607    MSE  0.0198   MEDIAN  1.9934   MEAN  2.9551   MAX  21.2714    MSE  0.0185   MEDIAN  1.9244   MEAN  2.7603   MAX  20.8046    
0.1 MSE  0.0358   MEDIAN  2.5894   MEAN  3.4003   MAX  19.0761    MSE  0.0364   MEDIAN  2.7164   MEAN  3.5039   MAX  20.2685    MSE  0.0359   MEDIAN  2.4154   MEAN  3.2323   MAX  19.6035    
0.2 MSE  0.0598   MEDIAN  3.9463   MEAN  4.6181   MAX  18.9950    MSE  0.0604   MEDIAN  4.1599   MEAN  4.7798   MAX  18.9470    MSE  0.0603   MEDIAN  3.8448   MEAN  4.4962   MAX  20.8875    
0.3 MSE  0.0846   MEDIAN  6.2526   MEAN  6.5495   MAX  22.4243    MSE  0.0853   MEDIAN  6.0627   MEAN  6.4552   MAX  21.7191    MSE  0.0857   MEDIAN  5.8512   MEAN  6.3750   MAX  21.8110    
0.4 MSE  0.1092   MEDIAN  8.7302   MEAN  8.9874   MAX  28.4295    MSE  0.1104   MEDIAN  8.4552   MEAN  8.5731   MAX  27.1604    MSE  0.1111   MEDIAN  8.8458   MEAN  8.8286   MAX  25.6772    
0.5 MSE  0.1334   MEDIAN  11.6482   MEAN  11.8042   MAX  36.7604    MSE  0.1357   MEDIAN  11.0593   MEAN  11.0266   MAX  29.3631    MSE  0.1365   MEDIAN  12.0710   MEAN  11.8681   MAX  30.5656    
0.6 MSE  0.1569   MEDIAN  15.3321   MEAN  14.9483   MAX  49.1494    MSE  0.1606   MEDIAN  13.9568   MEAN  13.8687   MAX  31.1677    MSE  0.1617   MEDIAN  16.0562   MEAN  15.4902   MAX  123.9780    
0.7 MSE  0.1797   MEDIAN  19.5276   MEAN  18.8685   MAX  123.3544    MSE  0.1847   MEDIAN  17.8554   MEAN  17.2935   MAX  32.9641    MSE  0.1868   MEDIAN  20.4334   MEAN  19.3743   MAX  93.2141    
0.8 MSE  0.2017   MEDIAN  24.7209   MEAN  23.3877   MAX  120.1945    MSE  0.2076   MEDIAN  22.9524   MEAN  21.8709   MAX  38.6401    MSE  0.2112   MEDIAN  25.6223   MEAN  24.1734   MAX  73.9161    
0.9 MSE  0.2225   MEDIAN  30.1915   MEAN  29.7520   MAX  98.2819    MSE  0.2299   MEDIAN  29.3079   MEAN  28.5953   MAX  51.8411    MSE  0.2349   MEDIAN  31.4950   MEAN  30.7681   MAX  122.0513    
1.0 MSE  0.2423   MEDIAN  37.6951   MEAN  40.1194   MAX  73.9814    MSE  0.2513   MEDIAN  37.9887   MEAN  40.3368   MAX  86.8471    MSE  0.2588   MEDIAN  38.2782   MEAN  40.6250   MAX  121.9012    
